Classification Analysis: Airline Passenger Satisfaction
…
1081

255

31

train_clean %>%
  filter(departure_delay_in_minutes > 500) %>%
  dplyr::select(departure_delay_in_minutes, arrival_delay_in_minutes,
                flight_distance, class, type_of_travel,
                departure_arrival_time_convenient) %>%
  arrange(desc(departure_delay_in_minutes))

## # A tibble: 32 × 6
##    departure_delay_in_minutes arrival_delay_in_minutes flight_distance class   
##                         <dbl>                    <dbl>           <dbl> <chr>   
##  1                       1592                     1584            1120 Eco     
##  2                       1305                     1280            2916 Business
##  3                       1017                     1011            1959 Business
##  4                        978                      970            1598 Eco     
##  5                        933                      920            2187 Business
##  6                        930                      952            2418 Business
##  7                        921                      924             577 Business
##  8                        859                      860            1746 Business
##  9                        853                      823            3979 Business
## 10                        750                      729             998 Eco     
## # ℹ 22 more rows
## # ℹ 2 more variables: type_of_travel <chr>,
## #   departure_arrival_time_convenient <dbl>
…
